<?xml version="1.0"?>

<robot xmlns:xacro="http://ros.org/wiki/xacro">

  <!-- Quadrotor Simple Controller Plugin -->
  <xacro:macro name="quadrotor_controller">
    <gazebo>
      <plugin name="quadrotor_simple_controller" filename="libardrone_simple_controller.so">
        <alwaysOn>true</alwaysOn>
        <updateRate>0.0</updateRate>
        <bodyName>base_link</bodyName>
        <stateTopic>ground_truth/state</stateTopic>
        <imuTopic>ardrone/imu</imuTopic>
        <topicName>cmd_vel</topicName>
        <rollpitchProportionalGain>10.0</rollpitchProportionalGain>
        <rollpitchDifferentialGain>5.0</rollpitchDifferentialGain>
        <rollpitchLimit>0.5</rollpitchLimit>
        <yawProportionalGain>2.0</yawProportionalGain>
        <yawDifferentialGain>1.0</yawDifferentialGain>
        <yawLimit>1.5</yawLimit>
        <velocityXYProportionalGain>5.0</velocityXYProportionalGain>
        <velocityXYDifferentialGain>1.0</velocityXYDifferentialGain>
        <velocityXYLimit>2</velocityXYLimit>
        <velocityZProportionalGain>5.0</velocityZProportionalGain>
        <velocityZDifferentialGain>1.0</velocityZDifferentialGain>
        <velocityZLimit>0.5</velocityZLimit>
        <maxForce>30</maxForce>
        <motionSmallNoise>0.05</motionSmallNoise>
        <motionDriftNoise>0.03</motionDriftNoise>
        <motionDriftNoiseTime>5.0</motionDriftNoiseTime>
      </plugin>

      <plugin name="quadrotor_state_controller" filename="libardrone_state_controller.so">
        <alwaysOn>true</alwaysOn>
        <updateRate>0.0</updateRate>
        <bodyName>base_link</bodyName>
        <stateTopic>ground_truth/state</stateTopic>
        <imuTopic>ardrone/imu</imuTopic>
        <sonarTopic>sonar_height</sonarTopic>
        <topicName>cmd_vel</topicName>
      </plugin>
    </gazebo>
  </xacro:macro>
</robot>
